{"code":200,"meta":{"pagination":{"total":1545,"pages":78,"page":1,"limit":20}},"data":[{"id":1,"name":"Fake - 9360","email":"ret_embranthiri_adwitiya@ward-krajcik.name","gender":"Female","status":"Active","created_at":"2021-02-25T03:50:04.129+05:30","updated_at":"2021-02-25T07:01:05.734+05:30"},{"id":2,"name":"Arjun Naik","email":"damomca@gmail.com","gender":"Female","status":"Active","created_at":"2021-02-25T03:50:04.143+05:30","updated_at":"2021-02-25T04:01:47.989+05:30"},{"id":3,"name":"Anjali Test","email":"patel_anjali@medhurst-jenkins.co","gender":"Male","status":"Active","created_at":"2021-02-25T03:50:04.172+05:30","updated_at":"2021-02-25T15:19:32.195+05:30"},{"id":6,"name":"Balagovind Mahajan","email":"mahajan_balagovind@beier-price.io","gender":"Female","status":"Active","created_at":"2021-02-25T03:50:04.259+05:30","updated_at":"2021-02-25T03:50:04.259+05:30"},{"id":7,"name":"Bhishma Embranthiri","email":"bhishma_embranthiri@schulist-lind.com","gender":"Male","status":"Active","created_at":"2021-02-25T03:50:04.281+05:30","updated_at":"2021-02-25T03:50:04.281+05:30"},{"id":8,"name":"Datta Nehru V","email":"nehru_datta_v@spinka-herzog.info","gender":"Male","status":"Active","created_at":"2021-02-25T03:50:04.289+05:30","updated_at":"2021-02-25T03:50:04.289+05:30"},{"id":9,"name":"Rep. Baijayanti Kaniyar","email":"kaniyar_baijayanti_rep@runolfsson-becker.com","gender":"Male","status":"Inactive","created_at":"2021-02-25T03:50:04.313+05:30","updated_at":"2021-02-25T03:50:04.313+05:30"},{"id":12,"name":"Divya","email":"dwivedi_hamsini@flatley-larson.biz","gender":"Female","status":"Inactive","created_at":"2021-02-25T03:50:04.374+05:30","updated_at":"2021-02-25T17:12:31.665+05:30"},{"id":13,"name":"Sen. Marut Asan","email":"marut_sen_asan@marvin.net","gender":"Female","status":"Active","created_at":"2021-02-25T03:50:04.382+05:30","updated_at":"2021-02-25T03:50:04.382+05:30"},{"id":14,"name":"Vaidehi Ganaka111","email":"vaidehi_ganaka@yost.com","gender":"Female","status":"Inactive","created_at":"2021-02-25T03:50:04.413+05:30","updated_at":"2021-02-25T16:08:53.507+05:30"},{"id":16,"name":"Msgr. Bahula Marar","email":"msgr_bahula_marar@rodriguez-herzog.info","gender":"Female","status":"Inactive","created_at":"2021-02-25T03:50:04.436+05:30","updated_at":"2021-02-25T03:50:04.436+05:30"},{"id":17,"name":"Fr. Prasanna Patel","email":"fr_patel_prasanna@hoeger.co","gender":"Male","status":"Active","created_at":"2021-02-25T03:50:04.446+05:30","updated_at":"2021-02-25T03:50:04.446+05:30"},{"id":18,"name":"Gov. Dharmaketu Mehrotra","email":"gov_mehrotra_dharmaketu@robel-stoltenberg.io","gender":"Female","status":"Active","created_at":"2021-02-25T03:50:04.452+05:30","updated_at":"2021-02-25T03:50:04.452+05:30"},{"id":21,"name":"Somnath Joshi","email":"somnath_joshi@berge.info","gender":"Female","status":"Active","created_at":"2021-02-25T03:50:04.506+05:30","updated_at":"2021-02-25T03:50:04.506+05:30"},{"id":23,"name":"Sanya Dwivedi II","email":"sanya_ii_dwivedi@waters.io","gender":"Male","status":"Active","created_at":"2021-02-25T03:50:04.552+05:30","updated_at":"2021-02-25T03:50:04.552+05:30"},{"id":24,"name":"Chaturaanan Ahuja Sr.","email":"ahuja_chaturaanan_sr@konopelski.biz","gender":"Female","status":"Inactive","created_at":"2021-02-25T03:50:04.558+05:30","updated_at":"2021-02-25T03:50:04.558+05:30"},{"id":25,"name":"Fr. Chandramauli Mukhopadhyay","email":"mukhopadhyay_chandramauli_fr@moore.net","gender":"Female","status":"Inactive","created_at":"2021-02-25T03:50:04.585+05:30","updated_at":"2021-02-25T03:50:04.585+05:30"},{"id":26,"name":"Washington Luis Cabral da Silva","email":"wluissilva@live.com","gender":"Male","status":"Active","created_at":"2021-02-25T03:50:04.599+05:30","updated_at":"2021-02-25T08:39:01.129+05:30"},{"id":28,"name":"Mrs. Prem Varma","email":"varma_mrs_prem@gulgowski.org","gender":"Female","status":"Inactive","created_at":"2021-02-25T03:50:04.611+05:30","updated_at":"2021-02-25T03:50:04.611+05:30"},{"id":30,"name":"Jitendra Mukhopadhyay","email":"mukhopadhyay_jitendra@hermiston.name","gender":"Female","status":"Active","created_at":"2021-02-25T03:50:04.629+05:30","updated_at":"2021-02-25T03:50:04.629+05:30"}]}